<?xml version="1.0" encoding="UTF-8" standalone="no"?>
<svg
   xmlns:dc="http://purl.org/dc/elements/1.1/"
   xmlns:cc="http://creativecommons.org/ns#"
   xmlns:rdf="http://www.w3.org/1999/02/22-rdf-syntax-ns#"
   xmlns:svg="http://www.w3.org/2000/svg"
   xmlns="http://www.w3.org/2000/svg"
   style="font-size:72px;font-family:'Bitstream Vera Sans', 'Liberation Sans', Arial, sans-serif;text-anchor:middle"
   id="svg10"
   font-size="72"
   viewBox="-300 -300 570 570"
   version="1.1"
   width="285"
   height="285">
  <metadata
     id="metadata16">
    <rdf:RDF>
      <cc:Work
         rdf:about="">
        <dc:format>image/svg+xml</dc:format>
        <dc:type
           rdf:resource="http://purl.org/dc/dcmitype/StillImage" />
      </cc:Work>
    </rdf:RDF>
  </metadata>
  <defs
     id="defs14" />
  <circle
     style="fill:#ffffff;stroke:#aaaaaa;stroke-width:10"
     cy="-15"
     cx="-15"
     id="circle2"
     r="280" />
  <text
     y="-15"
     x="-15"
     id="text8"
     style="fill:#444444">
    <tspan
       id="tspan4"
       y="-23"
       x="-15">NO IMAGE</tspan>
    <tspan
       id="tspan6"
       y="65"
       x="-15">AVAILABLE</tspan>
  </text>
</svg>
